^C:\DEV\GIT\HOYUK\ANGELSCIPT\SDK\ANGELSCRIPT\SOURCE\AS_ATOMIC.CPP|C:\DEV\GIT\HOYUK\ANGELSCIPT\SDK\ANGELSCRIPT\SOURCE\AS_BUILDER.CPP|C:\DEV\GIT\HOYUK\ANGELSCIPT\SDK\ANGELSCRIPT\SOURCE\AS_BYTECODE.CPP|C:\DEV\GIT\HOYUK\ANGELSCIPT\SDK\ANGELSCRIPT\SOURCE\AS_CALLFUNC.CPP|C:\DEV\GIT\HOYUK\ANGELSCIPT\SDK\ANGELSCRIPT\SOURCE\AS_CALLFUNC_MIPS.CPP|C:\DEV\GIT\HOYUK\ANGELSCIPT\SDK\ANGELSCRIPT\SOURCE\AS_CALLFUNC_SH4.CPP|C:\DEV\GIT\HOYUK\ANGELSCIPT\SDK\ANGELSCRIPT\SOURCE\AS_CALLFUNC_X64_MSVC.CPP|C:\DEV\GIT\HOYUK\ANGELSCIPT\SDK\ANGELSCRIPT\SOURCE\AS_CALLFUNC_X86.CPP|C:\DEV\GIT\HOYUK\ANGELSCIPT\SDK\ANGELSCRIPT\SOURCE\AS_COMPILER.CPP|C:\DEV\GIT\HOYUK\ANGELSCIPT\SDK\ANGELSCRIPT\SOURCE\AS_CONFIGGROUP.CPP|C:\DEV\GIT\HOYUK\ANGELSCIPT\SDK\ANGELSCRIPT\SOURCE\AS_CONTEXT.CPP|C:\DEV\GIT\HOYUK\ANGELSCIPT\SDK\ANGELSCRIPT\SOURCE\AS_DATATYPE.CPP|C:\DEV\GIT\HOYUK\ANGELSCIPT\SDK\ANGELSCRIPT\SOURCE\AS_GC.CPP|C:\DEV\GIT\HOYUK\ANGELSCIPT\SDK\ANGELSCRIPT\SOURCE\AS_GENERIC.CPP|C:\DEV\GIT\HOYUK\ANGELSCIPT\SDK\ANGELSCRIPT\SOURCE\AS_GLOBALPROPERTY.CPP|C:\DEV\GIT\HOYUK\ANGELSCIPT\SDK\ANGELSCRIPT\SOURCE\AS_MEMORY.CPP|C:\DEV\GIT\HOYUK\ANGELSCIPT\SDK\ANGELSCRIPT\SOURCE\AS_MODULE.CPP|C:\DEV\GIT\HOYUK\ANGELSCIPT\SDK\ANGELSCRIPT\SOURCE\AS_OBJECTTYPE.CPP|C:\DEV\GIT\HOYUK\ANGELSCIPT\SDK\ANGELSCRIPT\SOURCE\AS_OUTPUTBUFFER.CPP|C:\DEV\GIT\HOYUK\ANGELSCIPT\SDK\ANGELSCRIPT\SOURCE\AS_PARSER.CPP|C:\DEV\GIT\HOYUK\ANGELSCIPT\SDK\ANGELSCRIPT\SOURCE\AS_RESTORE.CPP|C:\DEV\GIT\HOYUK\ANGELSCIPT\SDK\ANGELSCRIPT\SOURCE\AS_SCRIPTCODE.CPP|C:\DEV\GIT\HOYUK\ANGELSCIPT\SDK\ANGELSCRIPT\SOURCE\AS_SCRIPTENGINE.CPP|C:\DEV\GIT\HOYUK\ANGELSCIPT\SDK\ANGELSCRIPT\SOURCE\AS_SCRIPTFUNCTION.CPP|C:\DEV\GIT\HOYUK\ANGELSCIPT\SDK\ANGELSCRIPT\SOURCE\AS_SCRIPTNODE.CPP|C:\DEV\GIT\HOYUK\ANGELSCIPT\SDK\ANGELSCRIPT\SOURCE\AS_SCRIPTOBJECT.CPP|C:\DEV\GIT\HOYUK\ANGELSCIPT\SDK\ANGELSCRIPT\SOURCE\AS_STRING.CPP|C:\DEV\GIT\HOYUK\ANGELSCIPT\SDK\ANGELSCRIPT\SOURCE\AS_STRING_UTIL.CPP|C:\DEV\GIT\HOYUK\ANGELSCIPT\SDK\ANGELSCRIPT\SOURCE\AS_THREAD.CPP|C:\DEV\GIT\HOYUK\ANGELSCIPT\SDK\ANGELSCRIPT\SOURCE\AS_TOKENIZER.CPP|C:\DEV\GIT\HOYUK\ANGELSCIPT\SDK\ANGELSCRIPT\SOURCE\AS_TYPEINFO.CPP|C:\DEV\GIT\HOYUK\ANGELSCIPT\SDK\ANGELSCRIPT\SOURCE\AS_VARIABLESCOPE.CPP
C:\DEV\GIT\HOYUK\ANGELSCIPT\SDK\ANGELSCRIPT\PROJECTS\MSVC10\DEBUG\AS_PARSER.OBJ
C:\DEV\GIT\HOYUK\ANGELSCIPT\SDK\ANGELSCRIPT\PROJECTS\MSVC10\DEBUG\AS_OUTPUTBUFFER.OBJ
C:\DEV\GIT\HOYUK\ANGELSCIPT\SDK\ANGELSCRIPT\PROJECTS\MSVC10\DEBUG\AS_OBJECTTYPE.OBJ
C:\DEV\GIT\HOYUK\ANGELSCIPT\SDK\ANGELSCRIPT\PROJECTS\MSVC10\DEBUG\AS_MODULE.OBJ
C:\DEV\GIT\HOYUK\ANGELSCIPT\SDK\ANGELSCRIPT\PROJECTS\MSVC10\DEBUG\AS_MEMORY.OBJ
C:\DEV\GIT\HOYUK\ANGELSCIPT\SDK\ANGELSCRIPT\PROJECTS\MSVC10\DEBUG\AS_GLOBALPROPERTY.OBJ
C:\DEV\GIT\HOYUK\ANGELSCIPT\SDK\ANGELSCRIPT\PROJECTS\MSVC10\DEBUG\AS_GENERIC.OBJ
C:\DEV\GIT\HOYUK\ANGELSCIPT\SDK\ANGELSCRIPT\PROJECTS\MSVC10\DEBUG\AS_GC.OBJ
C:\DEV\GIT\HOYUK\ANGELSCIPT\SDK\ANGELSCRIPT\PROJECTS\MSVC10\DEBUG\AS_DATATYPE.OBJ
C:\DEV\GIT\HOYUK\ANGELSCIPT\SDK\ANGELSCRIPT\PROJECTS\MSVC10\DEBUG\AS_CONTEXT.OBJ
C:\DEV\GIT\HOYUK\ANGELSCIPT\SDK\ANGELSCRIPT\PROJECTS\MSVC10\DEBUG\AS_CONFIGGROUP.OBJ
C:\DEV\GIT\HOYUK\ANGELSCIPT\SDK\ANGELSCRIPT\PROJECTS\MSVC10\DEBUG\AS_COMPILER.OBJ
C:\DEV\GIT\HOYUK\ANGELSCIPT\SDK\ANGELSCRIPT\PROJECTS\MSVC10\DEBUG\AS_CALLFUNC_X86.OBJ
C:\DEV\GIT\HOYUK\ANGELSCIPT\SDK\ANGELSCRIPT\PROJECTS\MSVC10\DEBUG\AS_CALLFUNC_X64_MSVC.OBJ
C:\DEV\GIT\HOYUK\ANGELSCIPT\SDK\ANGELSCRIPT\PROJECTS\MSVC10\DEBUG\AS_CALLFUNC_SH4.OBJ
C:\DEV\GIT\HOYUK\ANGELSCIPT\SDK\ANGELSCRIPT\PROJECTS\MSVC10\DEBUG\AS_CALLFUNC_MIPS.OBJ
C:\DEV\GIT\HOYUK\ANGELSCIPT\SDK\ANGELSCRIPT\PROJECTS\MSVC10\DEBUG\AS_CALLFUNC.OBJ
C:\DEV\GIT\HOYUK\ANGELSCIPT\SDK\ANGELSCRIPT\PROJECTS\MSVC10\DEBUG\AS_BYTECODE.OBJ
C:\DEV\GIT\HOYUK\ANGELSCIPT\SDK\ANGELSCRIPT\PROJECTS\MSVC10\DEBUG\AS_BUILDER.OBJ
C:\DEV\GIT\HOYUK\ANGELSCIPT\SDK\ANGELSCRIPT\PROJECTS\MSVC10\DEBUG\AS_ATOMIC.OBJ
C:\DEV\GIT\HOYUK\ANGELSCIPT\SDK\ANGELSCRIPT\PROJECTS\MSVC10\DEBUG\AS_VARIABLESCOPE.OBJ
C:\DEV\GIT\HOYUK\ANGELSCIPT\SDK\ANGELSCRIPT\PROJECTS\MSVC10\DEBUG\AS_TYPEINFO.OBJ
C:\DEV\GIT\HOYUK\ANGELSCIPT\SDK\ANGELSCRIPT\PROJECTS\MSVC10\DEBUG\AS_TOKENIZER.OBJ
C:\DEV\GIT\HOYUK\ANGELSCIPT\SDK\ANGELSCRIPT\PROJECTS\MSVC10\DEBUG\AS_THREAD.OBJ
C:\DEV\GIT\HOYUK\ANGELSCIPT\SDK\ANGELSCRIPT\PROJECTS\MSVC10\DEBUG\AS_STRING_UTIL.OBJ
C:\DEV\GIT\HOYUK\ANGELSCIPT\SDK\ANGELSCRIPT\PROJECTS\MSVC10\DEBUG\AS_STRING.OBJ
C:\DEV\GIT\HOYUK\ANGELSCIPT\SDK\ANGELSCRIPT\PROJECTS\MSVC10\DEBUG\AS_SCRIPTOBJECT.OBJ
C:\DEV\GIT\HOYUK\ANGELSCIPT\SDK\ANGELSCRIPT\PROJECTS\MSVC10\DEBUG\AS_SCRIPTNODE.OBJ
C:\DEV\GIT\HOYUK\ANGELSCIPT\SDK\ANGELSCRIPT\PROJECTS\MSVC10\DEBUG\AS_SCRIPTFUNCTION.OBJ
C:\DEV\GIT\HOYUK\ANGELSCIPT\SDK\ANGELSCRIPT\PROJECTS\MSVC10\DEBUG\AS_SCRIPTENGINE.OBJ
C:\DEV\GIT\HOYUK\ANGELSCIPT\SDK\ANGELSCRIPT\PROJECTS\MSVC10\DEBUG\AS_SCRIPTCODE.OBJ
C:\DEV\GIT\HOYUK\ANGELSCIPT\SDK\ANGELSCRIPT\PROJECTS\MSVC10\DEBUG\AS_RESTORE.OBJ
^C:\DEV\GIT\HOYUK\ANGELSCIPT\SDK\ANGELSCRIPT\SOURCE\AS_ATOMIC.CPP
C:\DEV\GIT\HOYUK\ANGELSCIPT\SDK\ANGELSCRIPT\PROJECTS\MSVC10\DEBUG\VC100.PDB
^C:\DEV\GIT\HOYUK\ANGELSCIPT\SDK\ANGELSCRIPT\SOURCE\AS_BUILDER.CPP
C:\DEV\GIT\HOYUK\ANGELSCIPT\SDK\ANGELSCRIPT\PROJECTS\MSVC10\DEBUG\VC100.PDB
^C:\DEV\GIT\HOYUK\ANGELSCIPT\SDK\ANGELSCRIPT\SOURCE\AS_BYTECODE.CPP
C:\DEV\GIT\HOYUK\ANGELSCIPT\SDK\ANGELSCRIPT\PROJECTS\MSVC10\DEBUG\VC100.PDB
^C:\DEV\GIT\HOYUK\ANGELSCIPT\SDK\ANGELSCRIPT\SOURCE\AS_CALLFUNC.CPP
C:\DEV\GIT\HOYUK\ANGELSCIPT\SDK\ANGELSCRIPT\PROJECTS\MSVC10\DEBUG\VC100.PDB
^C:\DEV\GIT\HOYUK\ANGELSCIPT\SDK\ANGELSCRIPT\SOURCE\AS_CALLFUNC_MIPS.CPP
C:\DEV\GIT\HOYUK\ANGELSCIPT\SDK\ANGELSCRIPT\PROJECTS\MSVC10\DEBUG\VC100.PDB
^C:\DEV\GIT\HOYUK\ANGELSCIPT\SDK\ANGELSCRIPT\SOURCE\AS_CALLFUNC_SH4.CPP
C:\DEV\GIT\HOYUK\ANGELSCIPT\SDK\ANGELSCRIPT\PROJECTS\MSVC10\DEBUG\VC100.PDB
^C:\DEV\GIT\HOYUK\ANGELSCIPT\SDK\ANGELSCRIPT\SOURCE\AS_CALLFUNC_X64_MSVC.CPP
C:\DEV\GIT\HOYUK\ANGELSCIPT\SDK\ANGELSCRIPT\PROJECTS\MSVC10\DEBUG\VC100.PDB
^C:\DEV\GIT\HOYUK\ANGELSCIPT\SDK\ANGELSCRIPT\SOURCE\AS_CALLFUNC_X86.CPP
C:\DEV\GIT\HOYUK\ANGELSCIPT\SDK\ANGELSCRIPT\PROJECTS\MSVC10\DEBUG\VC100.PDB
^C:\DEV\GIT\HOYUK\ANGELSCIPT\SDK\ANGELSCRIPT\SOURCE\AS_COMPILER.CPP
C:\DEV\GIT\HOYUK\ANGELSCIPT\SDK\ANGELSCRIPT\PROJECTS\MSVC10\DEBUG\VC100.PDB
^C:\DEV\GIT\HOYUK\ANGELSCIPT\SDK\ANGELSCRIPT\SOURCE\AS_CONFIGGROUP.CPP
C:\DEV\GIT\HOYUK\ANGELSCIPT\SDK\ANGELSCRIPT\PROJECTS\MSVC10\DEBUG\VC100.PDB
^C:\DEV\GIT\HOYUK\ANGELSCIPT\SDK\ANGELSCRIPT\SOURCE\AS_CONTEXT.CPP
C:\DEV\GIT\HOYUK\ANGELSCIPT\SDK\ANGELSCRIPT\PROJECTS\MSVC10\DEBUG\VC100.PDB
^C:\DEV\GIT\HOYUK\ANGELSCIPT\SDK\ANGELSCRIPT\SOURCE\AS_DATATYPE.CPP
C:\DEV\GIT\HOYUK\ANGELSCIPT\SDK\ANGELSCRIPT\PROJECTS\MSVC10\DEBUG\VC100.PDB
^C:\DEV\GIT\HOYUK\ANGELSCIPT\SDK\ANGELSCRIPT\SOURCE\AS_GC.CPP
C:\DEV\GIT\HOYUK\ANGELSCIPT\SDK\ANGELSCRIPT\PROJECTS\MSVC10\DEBUG\VC100.PDB
^C:\DEV\GIT\HOYUK\ANGELSCIPT\SDK\ANGELSCRIPT\SOURCE\AS_GENERIC.CPP
C:\DEV\GIT\HOYUK\ANGELSCIPT\SDK\ANGELSCRIPT\PROJECTS\MSVC10\DEBUG\VC100.PDB
^C:\DEV\GIT\HOYUK\ANGELSCIPT\SDK\ANGELSCRIPT\SOURCE\AS_GLOBALPROPERTY.CPP
C:\DEV\GIT\HOYUK\ANGELSCIPT\SDK\ANGELSCRIPT\PROJECTS\MSVC10\DEBUG\VC100.PDB
^C:\DEV\GIT\HOYUK\ANGELSCIPT\SDK\ANGELSCRIPT\SOURCE\AS_MEMORY.CPP
C:\DEV\GIT\HOYUK\ANGELSCIPT\SDK\ANGELSCRIPT\PROJECTS\MSVC10\DEBUG\VC100.PDB
^C:\DEV\GIT\HOYUK\ANGELSCIPT\SDK\ANGELSCRIPT\SOURCE\AS_MODULE.CPP
C:\DEV\GIT\HOYUK\ANGELSCIPT\SDK\ANGELSCRIPT\PROJECTS\MSVC10\DEBUG\VC100.PDB
^C:\DEV\GIT\HOYUK\ANGELSCIPT\SDK\ANGELSCRIPT\SOURCE\AS_OBJECTTYPE.CPP
C:\DEV\GIT\HOYUK\ANGELSCIPT\SDK\ANGELSCRIPT\PROJECTS\MSVC10\DEBUG\VC100.PDB
^C:\DEV\GIT\HOYUK\ANGELSCIPT\SDK\ANGELSCRIPT\SOURCE\AS_OUTPUTBUFFER.CPP
C:\DEV\GIT\HOYUK\ANGELSCIPT\SDK\ANGELSCRIPT\PROJECTS\MSVC10\DEBUG\VC100.PDB
^C:\DEV\GIT\HOYUK\ANGELSCIPT\SDK\ANGELSCRIPT\SOURCE\AS_PARSER.CPP
C:\DEV\GIT\HOYUK\ANGELSCIPT\SDK\ANGELSCRIPT\PROJECTS\MSVC10\DEBUG\VC100.PDB
^C:\DEV\GIT\HOYUK\ANGELSCIPT\SDK\ANGELSCRIPT\SOURCE\AS_RESTORE.CPP
C:\DEV\GIT\HOYUK\ANGELSCIPT\SDK\ANGELSCRIPT\PROJECTS\MSVC10\DEBUG\VC100.PDB
^C:\DEV\GIT\HOYUK\ANGELSCIPT\SDK\ANGELSCRIPT\SOURCE\AS_SCRIPTCODE.CPP
C:\DEV\GIT\HOYUK\ANGELSCIPT\SDK\ANGELSCRIPT\PROJECTS\MSVC10\DEBUG\VC100.PDB
^C:\DEV\GIT\HOYUK\ANGELSCIPT\SDK\ANGELSCRIPT\SOURCE\AS_SCRIPTENGINE.CPP
C:\DEV\GIT\HOYUK\ANGELSCIPT\SDK\ANGELSCRIPT\PROJECTS\MSVC10\DEBUG\VC100.PDB
^C:\DEV\GIT\HOYUK\ANGELSCIPT\SDK\ANGELSCRIPT\SOURCE\AS_SCRIPTFUNCTION.CPP
C:\DEV\GIT\HOYUK\ANGELSCIPT\SDK\ANGELSCRIPT\PROJECTS\MSVC10\DEBUG\VC100.PDB
^C:\DEV\GIT\HOYUK\ANGELSCIPT\SDK\ANGELSCRIPT\SOURCE\AS_SCRIPTNODE.CPP
C:\DEV\GIT\HOYUK\ANGELSCIPT\SDK\ANGELSCRIPT\PROJECTS\MSVC10\DEBUG\VC100.PDB
^C:\DEV\GIT\HOYUK\ANGELSCIPT\SDK\ANGELSCRIPT\SOURCE\AS_SCRIPTOBJECT.CPP
C:\DEV\GIT\HOYUK\ANGELSCIPT\SDK\ANGELSCRIPT\PROJECTS\MSVC10\DEBUG\VC100.PDB
^C:\DEV\GIT\HOYUK\ANGELSCIPT\SDK\ANGELSCRIPT\SOURCE\AS_STRING.CPP
C:\DEV\GIT\HOYUK\ANGELSCIPT\SDK\ANGELSCRIPT\PROJECTS\MSVC10\DEBUG\VC100.PDB
^C:\DEV\GIT\HOYUK\ANGELSCIPT\SDK\ANGELSCRIPT\SOURCE\AS_STRING_UTIL.CPP
C:\DEV\GIT\HOYUK\ANGELSCIPT\SDK\ANGELSCRIPT\PROJECTS\MSVC10\DEBUG\VC100.PDB
^C:\DEV\GIT\HOYUK\ANGELSCIPT\SDK\ANGELSCRIPT\SOURCE\AS_THREAD.CPP
C:\DEV\GIT\HOYUK\ANGELSCIPT\SDK\ANGELSCRIPT\PROJECTS\MSVC10\DEBUG\VC100.PDB
^C:\DEV\GIT\HOYUK\ANGELSCIPT\SDK\ANGELSCRIPT\SOURCE\AS_TOKENIZER.CPP
C:\DEV\GIT\HOYUK\ANGELSCIPT\SDK\ANGELSCRIPT\PROJECTS\MSVC10\DEBUG\VC100.PDB
^C:\DEV\GIT\HOYUK\ANGELSCIPT\SDK\ANGELSCRIPT\SOURCE\AS_TYPEINFO.CPP
C:\DEV\GIT\HOYUK\ANGELSCIPT\SDK\ANGELSCRIPT\PROJECTS\MSVC10\DEBUG\VC100.PDB
^C:\DEV\GIT\HOYUK\ANGELSCIPT\SDK\ANGELSCRIPT\SOURCE\AS_VARIABLESCOPE.CPP
C:\DEV\GIT\HOYUK\ANGELSCIPT\SDK\ANGELSCRIPT\PROJECTS\MSVC10\DEBUG\VC100.PDB
