^C:\DEV\GIT\HOYUK\ANGELSCIPT\SDK\ANGELSCRIPT\PROJECTS\MSVC10\RELEASE\AS_ATOMIC.OBJ|C:\DEV\GIT\HOYUK\ANGELSCIPT\SDK\ANGELSCRIPT\PROJECTS\MSVC10\RELEASE\AS_BUILDER.OBJ|C:\DEV\GIT\HOYUK\ANGELSCIPT\SDK\ANGELSCRIPT\PROJECTS\MSVC10\RELEASE\AS_BYTECODE.OBJ|C:\DEV\GIT\HOYUK\ANGELSCIPT\SDK\ANGELSCRIPT\PROJECTS\MSVC10\RELEASE\AS_CALLFUNC.OBJ|C:\DEV\GIT\HOYUK\ANGELSCIPT\SDK\ANGELSCRIPT\PROJECTS\MSVC10\RELEASE\AS_CALLFUNC_MIPS.OBJ|C:\DEV\GIT\HOYUK\ANGELSCIPT\SDK\ANGELSCRIPT\PROJECTS\MSVC10\RELEASE\AS_CALLFUNC_SH4.OBJ|C:\DEV\GIT\HOYUK\ANGELSCIPT\SDK\ANGELSCRIPT\PROJECTS\MSVC10\RELEASE\AS_CALLFUNC_X64_MSVC.OBJ|C:\DEV\GIT\HOYUK\ANGELSCIPT\SDK\ANGELSCRIPT\PROJECTS\MSVC10\RELEASE\AS_CALLFUNC_X86.OBJ|C:\DEV\GIT\HOYUK\ANGELSCIPT\SDK\ANGELSCRIPT\PROJECTS\MSVC10\RELEASE\AS_COMPILER.OBJ|C:\DEV\GIT\HOYUK\ANGELSCIPT\SDK\ANGELSCRIPT\PROJECTS\MSVC10\RELEASE\AS_CONFIGGROUP.OBJ|C:\DEV\GIT\HOYUK\ANGELSCIPT\SDK\ANGELSCRIPT\PROJECTS\MSVC10\RELEASE\AS_CONTEXT.OBJ|C:\DEV\GIT\HOYUK\ANGELSCIPT\SDK\ANGELSCRIPT\PROJECTS\MSVC10\RELEASE\AS_DATATYPE.OBJ|C:\DEV\GIT\HOYUK\ANGELSCIPT\SDK\ANGELSCRIPT\PROJECTS\MSVC10\RELEASE\AS_GC.OBJ|C:\DEV\GIT\HOYUK\ANGELSCIPT\SDK\ANGELSCRIPT\PROJECTS\MSVC10\RELEASE\AS_GENERIC.OBJ|C:\DEV\GIT\HOYUK\ANGELSCIPT\SDK\ANGELSCRIPT\PROJECTS\MSVC10\RELEASE\AS_GLOBALPROPERTY.OBJ|C:\DEV\GIT\HOYUK\ANGELSCIPT\SDK\ANGELSCRIPT\PROJECTS\MSVC10\RELEASE\AS_MEMORY.OBJ|C:\DEV\GIT\HOYUK\ANGELSCIPT\SDK\ANGELSCRIPT\PROJECTS\MSVC10\RELEASE\AS_MODULE.OBJ|C:\DEV\GIT\HOYUK\ANGELSCIPT\SDK\ANGELSCRIPT\PROJECTS\MSVC10\RELEASE\AS_OBJECTTYPE.OBJ|C:\DEV\GIT\HOYUK\ANGELSCIPT\SDK\ANGELSCRIPT\PROJECTS\MSVC10\RELEASE\AS_OUTPUTBUFFER.OBJ|C:\DEV\GIT\HOYUK\ANGELSCIPT\SDK\ANGELSCRIPT\PROJECTS\MSVC10\RELEASE\AS_PARSER.OBJ|C:\DEV\GIT\HOYUK\ANGELSCIPT\SDK\ANGELSCRIPT\PROJECTS\MSVC10\RELEASE\AS_RESTORE.OBJ|C:\DEV\GIT\HOYUK\ANGELSCIPT\SDK\ANGELSCRIPT\PROJECTS\MSVC10\RELEASE\AS_SCRIPTCODE.OBJ|C:\DEV\GIT\HOYUK\ANGELSCIPT\SDK\ANGELSCRIPT\PROJECTS\MSVC10\RELEASE\AS_SCRIPTENGINE.OBJ|C:\DEV\GIT\HOYUK\ANGELSCIPT\SDK\ANGELSCRIPT\PROJECTS\MSVC10\RELEASE\AS_SCRIPTFUNCTION.OBJ|C:\DEV\GIT\HOYUK\ANGELSCIPT\SDK\ANGELSCRIPT\PROJECTS\MSVC10\RELEASE\AS_SCRIPTNODE.OBJ|C:\DEV\GIT\HOYUK\ANGELSCIPT\SDK\ANGELSCRIPT\PROJECTS\MSVC10\RELEASE\AS_SCRIPTOBJECT.OBJ|C:\DEV\GIT\HOYUK\ANGELSCIPT\SDK\ANGELSCRIPT\PROJECTS\MSVC10\RELEASE\AS_STRING.OBJ|C:\DEV\GIT\HOYUK\ANGELSCIPT\SDK\ANGELSCRIPT\PROJECTS\MSVC10\RELEASE\AS_STRING_UTIL.OBJ|C:\DEV\GIT\HOYUK\ANGELSCIPT\SDK\ANGELSCRIPT\PROJECTS\MSVC10\RELEASE\AS_THREAD.OBJ|C:\DEV\GIT\HOYUK\ANGELSCIPT\SDK\ANGELSCRIPT\PROJECTS\MSVC10\RELEASE\AS_TOKENIZER.OBJ|C:\DEV\GIT\HOYUK\ANGELSCIPT\SDK\ANGELSCRIPT\PROJECTS\MSVC10\RELEASE\AS_TYPEINFO.OBJ|C:\DEV\GIT\HOYUK\ANGELSCIPT\SDK\ANGELSCRIPT\PROJECTS\MSVC10\RELEASE\AS_VARIABLESCOPE.OBJ
C:\WINDOWS\SYSTEM32\TZRES.DLL
C:\DEV\GIT\HOYUK\ANGELSCIPT\SDK\ANGELSCRIPT\PROJECTS\MSVC10\RELEASE\AS_ATOMIC.OBJ
C:\DEV\GIT\HOYUK\ANGELSCIPT\SDK\ANGELSCRIPT\PROJECTS\MSVC10\RELEASE\AS_BUILDER.OBJ
C:\DEV\GIT\HOYUK\ANGELSCIPT\SDK\ANGELSCRIPT\PROJECTS\MSVC10\RELEASE\AS_BYTECODE.OBJ
C:\DEV\GIT\HOYUK\ANGELSCIPT\SDK\ANGELSCRIPT\PROJECTS\MSVC10\RELEASE\AS_CALLFUNC.OBJ
C:\DEV\GIT\HOYUK\ANGELSCIPT\SDK\ANGELSCRIPT\PROJECTS\MSVC10\RELEASE\AS_CALLFUNC_MIPS.OBJ
C:\DEV\GIT\HOYUK\ANGELSCIPT\SDK\ANGELSCRIPT\PROJECTS\MSVC10\RELEASE\AS_CALLFUNC_SH4.OBJ
C:\DEV\GIT\HOYUK\ANGELSCIPT\SDK\ANGELSCRIPT\PROJECTS\MSVC10\RELEASE\AS_CALLFUNC_X64_MSVC.OBJ
C:\DEV\GIT\HOYUK\ANGELSCIPT\SDK\ANGELSCRIPT\PROJECTS\MSVC10\RELEASE\AS_CALLFUNC_X86.OBJ
C:\DEV\GIT\HOYUK\ANGELSCIPT\SDK\ANGELSCRIPT\PROJECTS\MSVC10\RELEASE\AS_COMPILER.OBJ
C:\DEV\GIT\HOYUK\ANGELSCIPT\SDK\ANGELSCRIPT\PROJECTS\MSVC10\RELEASE\AS_CONFIGGROUP.OBJ
C:\DEV\GIT\HOYUK\ANGELSCIPT\SDK\ANGELSCRIPT\PROJECTS\MSVC10\RELEASE\AS_CONTEXT.OBJ
C:\DEV\GIT\HOYUK\ANGELSCIPT\SDK\ANGELSCRIPT\PROJECTS\MSVC10\RELEASE\AS_DATATYPE.OBJ
C:\DEV\GIT\HOYUK\ANGELSCIPT\SDK\ANGELSCRIPT\PROJECTS\MSVC10\RELEASE\AS_GC.OBJ
C:\DEV\GIT\HOYUK\ANGELSCIPT\SDK\ANGELSCRIPT\PROJECTS\MSVC10\RELEASE\AS_GENERIC.OBJ
C:\DEV\GIT\HOYUK\ANGELSCIPT\SDK\ANGELSCRIPT\PROJECTS\MSVC10\RELEASE\AS_GLOBALPROPERTY.OBJ
C:\DEV\GIT\HOYUK\ANGELSCIPT\SDK\ANGELSCRIPT\PROJECTS\MSVC10\RELEASE\AS_MEMORY.OBJ
C:\DEV\GIT\HOYUK\ANGELSCIPT\SDK\ANGELSCRIPT\PROJECTS\MSVC10\RELEASE\AS_MODULE.OBJ
C:\DEV\GIT\HOYUK\ANGELSCIPT\SDK\ANGELSCRIPT\PROJECTS\MSVC10\RELEASE\AS_OBJECTTYPE.OBJ
C:\DEV\GIT\HOYUK\ANGELSCIPT\SDK\ANGELSCRIPT\PROJECTS\MSVC10\RELEASE\AS_OUTPUTBUFFER.OBJ
C:\DEV\GIT\HOYUK\ANGELSCIPT\SDK\ANGELSCRIPT\PROJECTS\MSVC10\RELEASE\AS_PARSER.OBJ
C:\DEV\GIT\HOYUK\ANGELSCIPT\SDK\ANGELSCRIPT\PROJECTS\MSVC10\RELEASE\AS_RESTORE.OBJ
C:\DEV\GIT\HOYUK\ANGELSCIPT\SDK\ANGELSCRIPT\PROJECTS\MSVC10\RELEASE\AS_SCRIPTCODE.OBJ
C:\DEV\GIT\HOYUK\ANGELSCIPT\SDK\ANGELSCRIPT\PROJECTS\MSVC10\RELEASE\AS_SCRIPTENGINE.OBJ
C:\DEV\GIT\HOYUK\ANGELSCIPT\SDK\ANGELSCRIPT\PROJECTS\MSVC10\RELEASE\AS_SCRIPTFUNCTION.OBJ
C:\DEV\GIT\HOYUK\ANGELSCIPT\SDK\ANGELSCRIPT\PROJECTS\MSVC10\RELEASE\AS_SCRIPTNODE.OBJ
C:\DEV\GIT\HOYUK\ANGELSCIPT\SDK\ANGELSCRIPT\PROJECTS\MSVC10\RELEASE\AS_SCRIPTOBJECT.OBJ
C:\DEV\GIT\HOYUK\ANGELSCIPT\SDK\ANGELSCRIPT\PROJECTS\MSVC10\RELEASE\AS_STRING.OBJ
C:\DEV\GIT\HOYUK\ANGELSCIPT\SDK\ANGELSCRIPT\PROJECTS\MSVC10\RELEASE\AS_STRING_UTIL.OBJ
C:\DEV\GIT\HOYUK\ANGELSCIPT\SDK\ANGELSCRIPT\PROJECTS\MSVC10\RELEASE\AS_THREAD.OBJ
C:\DEV\GIT\HOYUK\ANGELSCIPT\SDK\ANGELSCRIPT\PROJECTS\MSVC10\RELEASE\AS_TOKENIZER.OBJ
C:\DEV\GIT\HOYUK\ANGELSCIPT\SDK\ANGELSCRIPT\PROJECTS\MSVC10\RELEASE\AS_TYPEINFO.OBJ
C:\DEV\GIT\HOYUK\ANGELSCIPT\SDK\ANGELSCRIPT\PROJECTS\MSVC10\RELEASE\AS_VARIABLESCOPE.OBJ
C:\WINDOWS\GLOBALIZATION\SORTING\SORTDEFAULT.NLS
C:\PROGRAM FILES (X86)\MICROSOFT VISUAL STUDIO 10.0\VC\BIN\1033\LINKUI.DLL
