^C:\DEV\GIT\HOYUK\ANGELSCIPT\SDK\ANGELSCRIPT\PROJECTS\MSVC10\RELEASE\AS_ATOMIC.OBJ|C:\DEV\GIT\HOYUK\ANGELSCIPT\SDK\ANGELSCRIPT\PROJECTS\MSVC10\RELEASE\AS_BUILDER.OBJ|C:\DEV\GIT\HOYUK\ANGELSCIPT\SDK\ANGELSCRIPT\PROJECTS\MSVC10\RELEASE\AS_BYTECODE.OBJ|C:\DEV\GIT\HOYUK\ANGELSCIPT\SDK\ANGELSCRIPT\PROJECTS\MSVC10\RELEASE\AS_CALLFUNC.OBJ|C:\DEV\GIT\HOYUK\ANGELSCIPT\SDK\ANGELSCRIPT\PROJECTS\MSVC10\RELEASE\AS_CALLFUNC_MIPS.OBJ|C:\DEV\GIT\HOYUK\ANGELSCIPT\SDK\ANGELSCRIPT\PROJECTS\MSVC10\RELEASE\AS_CALLFUNC_SH4.OBJ|C:\DEV\GIT\HOYUK\ANGELSCIPT\SDK\ANGELSCRIPT\PROJECTS\MSVC10\RELEASE\AS_CALLFUNC_X64_MSVC.OBJ|C:\DEV\GIT\HOYUK\ANGELSCIPT\SDK\ANGELSCRIPT\PROJECTS\MSVC10\RELEASE\AS_CALLFUNC_X86.OBJ|C:\DEV\GIT\HOYUK\ANGELSCIPT\SDK\ANGELSCRIPT\PROJECTS\MSVC10\RELEASE\AS_COMPILER.OBJ|C:\DEV\GIT\HOYUK\ANGELSCIPT\SDK\ANGELSCRIPT\PROJECTS\MSVC10\RELEASE\AS_CONFIGGROUP.OBJ|C:\DEV\GIT\HOYUK\ANGELSCIPT\SDK\ANGELSCRIPT\PROJECTS\MSVC10\RELEASE\AS_CONTEXT.OBJ|C:\DEV\GIT\HOYUK\ANGELSCIPT\SDK\ANGELSCRIPT\PROJECTS\MSVC10\RELEASE\AS_DATATYPE.OBJ|C:\DEV\GIT\HOYUK\ANGELSCIPT\SDK\ANGELSCRIPT\PROJECTS\MSVC10\RELEASE\AS_GC.OBJ|C:\DEV\GIT\HOYUK\ANGELSCIPT\SDK\ANGELSCRIPT\PROJECTS\MSVC10\RELEASE\AS_GENERIC.OBJ|C:\DEV\GIT\HOYUK\ANGELSCIPT\SDK\ANGELSCRIPT\PROJECTS\MSVC10\RELEASE\AS_GLOBALPROPERTY.OBJ|C:\DEV\GIT\HOYUK\ANGELSCIPT\SDK\ANGELSCRIPT\PROJECTS\MSVC10\RELEASE\AS_MEMORY.OBJ|C:\DEV\GIT\HOYUK\ANGELSCIPT\SDK\ANGELSCRIPT\PROJECTS\MSVC10\RELEASE\AS_MODULE.OBJ|C:\DEV\GIT\HOYUK\ANGELSCIPT\SDK\ANGELSCRIPT\PROJECTS\MSVC10\RELEASE\AS_OBJECTTYPE.OBJ|C:\DEV\GIT\HOYUK\ANGELSCIPT\SDK\ANGELSCRIPT\PROJECTS\MSVC10\RELEASE\AS_OUTPUTBUFFER.OBJ|C:\DEV\GIT\HOYUK\ANGELSCIPT\SDK\ANGELSCRIPT\PROJECTS\MSVC10\RELEASE\AS_PARSER.OBJ|C:\DEV\GIT\HOYUK\ANGELSCIPT\SDK\ANGELSCRIPT\PROJECTS\MSVC10\RELEASE\AS_RESTORE.OBJ|C:\DEV\GIT\HOYUK\ANGELSCIPT\SDK\ANGELSCRIPT\PROJECTS\MSVC10\RELEASE\AS_SCRIPTCODE.OBJ|C:\DEV\GIT\HOYUK\ANGELSCIPT\SDK\ANGELSCRIPT\PROJECTS\MSVC10\RELEASE\AS_SCRIPTENGINE.OBJ|C:\DEV\GIT\HOYUK\ANGELSCIPT\SDK\ANGELSCRIPT\PROJECTS\MSVC10\RELEASE\AS_SCRIPTFUNCTION.OBJ|C:\DEV\GIT\HOYUK\ANGELSCIPT\SDK\ANGELSCRIPT\PROJECTS\MSVC10\RELEASE\AS_SCRIPTNODE.OBJ|C:\DEV\GIT\HOYUK\ANGELSCIPT\SDK\ANGELSCRIPT\PROJECTS\MSVC10\RELEASE\AS_SCRIPTOBJECT.OBJ|C:\DEV\GIT\HOYUK\ANGELSCIPT\SDK\ANGELSCRIPT\PROJECTS\MSVC10\RELEASE\AS_STRING.OBJ|C:\DEV\GIT\HOYUK\ANGELSCIPT\SDK\ANGELSCRIPT\PROJECTS\MSVC10\RELEASE\AS_STRING_UTIL.OBJ|C:\DEV\GIT\HOYUK\ANGELSCIPT\SDK\ANGELSCRIPT\PROJECTS\MSVC10\RELEASE\AS_THREAD.OBJ|C:\DEV\GIT\HOYUK\ANGELSCIPT\SDK\ANGELSCRIPT\PROJECTS\MSVC10\RELEASE\AS_TOKENIZER.OBJ|C:\DEV\GIT\HOYUK\ANGELSCIPT\SDK\ANGELSCRIPT\PROJECTS\MSVC10\RELEASE\AS_TYPEINFO.OBJ|C:\DEV\GIT\HOYUK\ANGELSCIPT\SDK\ANGELSCRIPT\PROJECTS\MSVC10\RELEASE\AS_VARIABLESCOPE.OBJ
/OUT:"../../lib\angelscript.lib" /NOLOGO Release\as_atomic.obj
Release\as_builder.obj
Release\as_bytecode.obj
Release\as_callfunc.obj
Release\as_callfunc_mips.obj
Release\as_callfunc_sh4.obj
Release\as_callfunc_x64_msvc.obj
Release\as_callfunc_x86.obj
Release\as_compiler.obj
Release\as_configgroup.obj
Release\as_context.obj
Release\as_datatype.obj
Release\as_gc.obj
Release\as_generic.obj
Release\as_globalproperty.obj
Release\as_memory.obj
Release\as_module.obj
Release\as_objecttype.obj
Release\as_outputbuffer.obj
Release\as_parser.obj
Release\as_restore.obj
Release\as_scriptcode.obj
Release\as_scriptengine.obj
Release\as_scriptfunction.obj
Release\as_scriptnode.obj
Release\as_scriptobject.obj
Release\as_string.obj
Release\as_string_util.obj
Release\as_thread.obj
Release\as_tokenizer.obj
Release\as_typeinfo.obj
Release\as_variablescope.obj
